{
  "content": [
    {
      "id": {
        "userId": "....",
        "providerId": 1
      },
      "username": "....",
      "firstName": "....",
      "lastName": "....",
      "email": "....",
      "enabled": true,
      "pre_defined": true,
      "avatarExists": false,
      "role": {
        "id": 1,
        "name": "...."
      },
      "provider": {
        "id": 1,
        "name": "....",
        "issuer": "....",
        "domain": "....",
        "chatKey": "...."
      },
      "viewLink": "....",
      "fullName": "...."
    },
    {
      "id": {
        "userId": "....",
        "providerId": 4
      },
      "username": "....",
      "firstName": "....",
      "lastName": "....",
      "email": "....",
      "enabled": true,
      "pre_defined": false,
      "avatarExists": false,
      "role": {
        "id": 2,
        "name": "...."
      },
      "provider": {
        "id": 4,
        "name": "....",
        "issuer": "....",
        "domain": null,
        "chatKey": null
      },
      "viewLink": "....",
      "fullName": "...."
    },
    {
      "id": {
        "userId": "....",
        "providerId": 3
      },
      "username": "....",
      "firstName": "....",
      "lastName": "....",
      "email": "....",
      "enabled": true,
      "pre_defined": false,
      "avatarExists": false,
      "role": {
        "id": 3,
        "name": "...."
      },
      "provider": {
        "id": 3,
        "name": "....",
        "issuer": "....",
        "domain": "....",
        "chatKey": "...."
      },
      "viewLink": "....",
      "fullName": "...."
    }
  ],
  "pageable": {
    "sort": {
      "sorted": false,
      "unsorted": true,
      "empty": true
    },
    "pageNumber": 0,
    "pageSize": 3,
    "offset": 0,
    "paged": true,
    "unpaged": false
  },
  "totalPages": 1139,
  "totalElements": 3416,
  "last": false,
  "first": true,
  "sort": {
    "sorted": false,
    "unsorted": true,
    "empty": true
  },
  "size": 3,
  "number": 0,
  "numberOfElements": 3,
  "empty": false
}